
Date - 25 Sep 2019 10:19:35
Level - ERROR
UserAgent - Mozilla/5.0 (Windows NT 10.0; Win64; x64) AppleWebKit/537.36 (KHTML, like Gecko) Chrome/77.0.3865.90 Safari/537.36
Message - 
Error Message: <p style='text-align:center;font-size:30;'> This store has not been published yet.</p>

User Referrer: localhost:3288

Browser Name: Chrome

UserId: 

Logger: Znode.WebStore.Core

Debug Object Details: 


Znode.Engine.Exceptions.ZnodeException: <p style='text-align:center;font-size:30;'> This store has not been published yet.</p>
   at Znode.Engine.WebStore.Agents.PortalAgent.get_CurrentPortal() in D:\Projects\CustomerProject\Znode_9_2_1_Full_Source_RS_New\Projects\Libraries\Znode.WebStore.Core\Agents\Agents\PortalAgent.cs:line 60
   at Znode.Engine.WebStore.Agents.UrlRedirectAgent.GetActive301Redirects() in D:\Projects\CustomerProject\Znode_9_2_1_Full_Source_RS_New\Projects\Libraries\Znode.WebStore.Core\Agents\Agents\UrlRedirectAgent.cs:line 29
   at Znode.Engine.WebStore.WebstoreHelper.GetActive301Redirects() in D:\Projects\CustomerProject\Znode_9_2_1_Full_Source_RS_New\Projects\Libraries\Znode.WebStore.Core\Helpers\WebstoreHelper.cs:line 48
   at Znode.Engine.WebStore.Agents.UrlRedirectAgent.GetActive301RedirectsFromCache() in D:\Projects\CustomerProject\Znode_9_2_1_Full_Source_RS_New\Projects\Libraries\Znode.WebStore.Core\Agents\Agents\UrlRedirectAgent.cs:line 58
   at Znode.Engine.WebStore.Agents.UrlRedirectAgent.Has301Redirect(String url) in D:\Projects\CustomerProject\Znode_9_2_1_Full_Source_RS_New\Projects\Libraries\Znode.WebStore.Core\Agents\Agents\UrlRedirectAgent.cs:line 39
   at Znode.Engine.WebStore.MvcApplication.Application_BeginRequest(Object sender, EventArgs e) in D:\Projects\CustomerProject\Znode_9_2_1_Full_Source_RS_New\Projects\Znode.Engine.WebStore\Global.asax.cs:line 62
   at System.Web.HttpApplication.SyncEventExecutionStep.System.Web.HttpApplication.IExecutionStep.Execute()
   at System.Web.HttpApplication.ExecuteStepImpl(IExecutionStep step)
   at System.Web.HttpApplication.ExecuteStep(IExecutionStep step, Boolean& completedSynchronously)

Date - 25 Sep 2019 11:19:53
Level - ERROR
UserAgent - Mozilla/5.0 (Windows NT 10.0; Win64; x64) AppleWebKit/537.36 (KHTML, like Gecko) Chrome/77.0.3865.90 Safari/537.36
Message - 
Error Message: <p style='text-align:center;font-size:30;'> This store has not been published yet.</p>

User Referrer: localhost:3288

Browser Name: Chrome

UserId: 

Logger: Znode.WebStore.Core

Debug Object Details: 


Znode.Engine.Exceptions.ZnodeException: <p style='text-align:center;font-size:30;'> This store has not been published yet.</p>
   at Znode.Engine.WebStore.Agents.PortalAgent.get_CurrentPortal() in D:\Projects\CustomerProject\Znode_9_2_1_Full_Source_RS_New\Projects\Libraries\Znode.WebStore.Core\Agents\Agents\PortalAgent.cs:line 60
   at Znode.Engine.WebStore.Agents.UrlRedirectAgent.GetActive301Redirects() in D:\Projects\CustomerProject\Znode_9_2_1_Full_Source_RS_New\Projects\Libraries\Znode.WebStore.Core\Agents\Agents\UrlRedirectAgent.cs:line 29
   at Znode.Engine.WebStore.WebstoreHelper.GetActive301Redirects() in D:\Projects\CustomerProject\Znode_9_2_1_Full_Source_RS_New\Projects\Libraries\Znode.WebStore.Core\Helpers\WebstoreHelper.cs:line 48
   at Znode.Engine.WebStore.Agents.UrlRedirectAgent.GetActive301RedirectsFromCache() in D:\Projects\CustomerProject\Znode_9_2_1_Full_Source_RS_New\Projects\Libraries\Znode.WebStore.Core\Agents\Agents\UrlRedirectAgent.cs:line 58
   at Znode.Engine.WebStore.Agents.UrlRedirectAgent.Has301Redirect(String url) in D:\Projects\CustomerProject\Znode_9_2_1_Full_Source_RS_New\Projects\Libraries\Znode.WebStore.Core\Agents\Agents\UrlRedirectAgent.cs:line 39
   at Znode.Engine.WebStore.MvcApplication.Application_BeginRequest(Object sender, EventArgs e) in D:\Projects\CustomerProject\Znode_9_2_1_Full_Source_RS_New\Projects\Znode.Engine.WebStore\Global.asax.cs:line 62
   at System.Web.HttpApplication.SyncEventExecutionStep.System.Web.HttpApplication.IExecutionStep.Execute()
   at System.Web.HttpApplication.ExecuteStepImpl(IExecutionStep step)
   at System.Web.HttpApplication.ExecuteStep(IExecutionStep step, Boolean& completedSynchronously)
