
Date - 18 Sep 2019 14:06:35
Level - INFO
UserAgent - Mozilla/5.0 (Windows NT 10.0; Win64; x64) AppleWebKit/537.36 (KHTML, like Gecko) Chrome/76.0.3809.132 Safari/537.36
Message - 
Method FullTextSearch -Agent method execution started.

User Referrer: localhost:3288

Browser Name: Chrome

UserId: 

File Path: D:\Projects\CustomerProject\Znode_9_2_1_Full_Source_RS_New\Projects\Libraries\Znode.WebStore.Core\Agents\Agents\SearchAgent.cs

Method Name: FullTextSearch

Line Number: 59

Logger: SearchAgent.cs



Date - 18 Sep 2019 14:06:35
Level - DEBUG
UserAgent - Mozilla/5.0 (Windows NT 10.0; Win64; x64) AppleWebKit/537.36 (KHTML, like Gecko) Chrome/76.0.3809.132 Safari/537.36
Message - 
Method FullTextSearch -Input parameters:{
  "expands": [
    "promotions",
    "pricing",
    "seo",
    "AssociatedProducts"
  ],
  "filters": [
    {
      "FilterName": "ZnodeCatalogId",
      "FilterOperator": "eq",
      "FilterValue": "9",
      "Item1": "ZnodeCatalogId",
      "Item2": "eq",
      "Item3": "9"
    },
    {
      "FilterName": "LocaleId",
      "FilterOperator": "eq",
      "FilterValue": "1",
      "Item1": "LocaleId",
      "Item2": "eq",
      "Item3": "1"
    },
    {
      "FilterName": "PortalId",
      "FilterOperator": "eq",
      "FilterValue": "1",
      "Item1": "PortalId",
      "Item2": "eq",
      "Item3": "1"
    },
    {
      "FilterName": "IsActive",
      "FilterOperator": "eq",
      "FilterValue": "true",
      "Item1": "IsActive",
      "Item2": "eq",
      "Item3": "true"
    },
    {
      "FilterName": "ZnodeCategoryId",
      "FilterOperator": "eq",
      "FilterValue": "6558",
      "Item1": "ZnodeCategoryId",
      "Item2": "eq",
      "Item3": "6558"
    }
  ],
  "sorts": {}
}

User Referrer: localhost:3288

Browser Name: Chrome

UserId: 

File Path: D:\Projects\CustomerProject\Znode_9_2_1_Full_Source_RS_New\Projects\Libraries\Znode.WebStore.Core\Agents\Agents\SearchAgent.cs

Method Name: FullTextSearch

Line Number: 60

Logger: SearchAgent.cs



Date - 18 Sep 2019 14:06:35
Level - INFO
UserAgent - Mozilla/5.0 (Windows NT 10.0; Win64; x64) AppleWebKit/537.36 (KHTML, like Gecko) Chrome/76.0.3809.132 Safari/537.36
Message - 
Method FullTextSearch -Agent method executed.

User Referrer: localhost:3288

Browser Name: Chrome

UserId: 

File Path: D:\Projects\CustomerProject\Znode_9_2_1_Full_Source_RS_New\Projects\Libraries\Znode.WebStore.Core\Agents\Agents\SearchAgent.cs

Method Name: FullTextSearch

Line Number: 69

Logger: SearchAgent.cs



Date - 18 Sep 2019 14:27:20
Level - INFO
UserAgent - Mozilla/5.0 (Windows NT 10.0; Win64; x64) AppleWebKit/537.36 (KHTML, like Gecko) Chrome/76.0.3809.132 Safari/537.36
Message - 
Method FullTextSearch -Agent method execution started.

User Referrer: localhost:3288

Browser Name: Chrome

UserId: 

File Path: D:\Projects\CustomerProject\Znode_9_2_1_Full_Source_RS_New\Projects\Libraries\Znode.WebStore.Core\Agents\Agents\SearchAgent.cs

Method Name: FullTextSearch

Line Number: 59

Logger: SearchAgent.cs



Date - 18 Sep 2019 14:27:20
Level - DEBUG
UserAgent - Mozilla/5.0 (Windows NT 10.0; Win64; x64) AppleWebKit/537.36 (KHTML, like Gecko) Chrome/76.0.3809.132 Safari/537.36
Message - 
Method FullTextSearch -Input parameters:{
  "expands": [
    "promotions",
    "pricing",
    "seo",
    "AssociatedProducts"
  ],
  "filters": [
    {
      "FilterName": "ZnodeCatalogId",
      "FilterOperator": "eq",
      "FilterValue": "9",
      "Item1": "ZnodeCatalogId",
      "Item2": "eq",
      "Item3": "9"
    },
    {
      "FilterName": "LocaleId",
      "FilterOperator": "eq",
      "FilterValue": "1",
      "Item1": "LocaleId",
      "Item2": "eq",
      "Item3": "1"
    },
    {
      "FilterName": "PortalId",
      "FilterOperator": "eq",
      "FilterValue": "1",
      "Item1": "PortalId",
      "Item2": "eq",
      "Item3": "1"
    },
    {
      "FilterName": "IsActive",
      "FilterOperator": "eq",
      "FilterValue": "true",
      "Item1": "IsActive",
      "Item2": "eq",
      "Item3": "true"
    },
    {
      "FilterName": "ZnodeCategoryId",
      "FilterOperator": "eq",
      "FilterValue": "6558",
      "Item1": "ZnodeCategoryId",
      "Item2": "eq",
      "Item3": "6558"
    }
  ],
  "sorts": {}
}

User Referrer: localhost:3288

Browser Name: Chrome

UserId: 

File Path: D:\Projects\CustomerProject\Znode_9_2_1_Full_Source_RS_New\Projects\Libraries\Znode.WebStore.Core\Agents\Agents\SearchAgent.cs

Method Name: FullTextSearch

Line Number: 60

Logger: SearchAgent.cs



Date - 18 Sep 2019 14:27:20
Level - INFO
UserAgent - Mozilla/5.0 (Windows NT 10.0; Win64; x64) AppleWebKit/537.36 (KHTML, like Gecko) Chrome/76.0.3809.132 Safari/537.36
Message - 
Method FullTextSearch -Agent method executed.

User Referrer: localhost:3288

Browser Name: Chrome

UserId: 

File Path: D:\Projects\CustomerProject\Znode_9_2_1_Full_Source_RS_New\Projects\Libraries\Znode.WebStore.Core\Agents\Agents\SearchAgent.cs

Method Name: FullTextSearch

Line Number: 69

Logger: SearchAgent.cs



Date - 18 Sep 2019 14:29:35
Level - INFO
UserAgent - Mozilla/5.0 (Windows NT 10.0; Win64; x64) AppleWebKit/537.36 (KHTML, like Gecko) Chrome/76.0.3809.132 Safari/537.36
Message - 
Method FullTextSearch -Agent method execution started.

User Referrer: localhost:3288

Browser Name: Chrome

UserId: 

File Path: D:\Projects\CustomerProject\Znode_9_2_1_Full_Source_RS_New\Projects\Libraries\Znode.WebStore.Core\Agents\Agents\SearchAgent.cs

Method Name: FullTextSearch

Line Number: 59

Logger: SearchAgent.cs



Date - 18 Sep 2019 14:29:35
Level - DEBUG
UserAgent - Mozilla/5.0 (Windows NT 10.0; Win64; x64) AppleWebKit/537.36 (KHTML, like Gecko) Chrome/76.0.3809.132 Safari/537.36
Message - 
Method FullTextSearch -Input parameters:{
  "expands": [
    "promotions",
    "pricing",
    "seo",
    "AssociatedProducts"
  ],
  "filters": [
    {
      "FilterName": "ZnodeCatalogId",
      "FilterOperator": "eq",
      "FilterValue": "9",
      "Item1": "ZnodeCatalogId",
      "Item2": "eq",
      "Item3": "9"
    },
    {
      "FilterName": "LocaleId",
      "FilterOperator": "eq",
      "FilterValue": "1",
      "Item1": "LocaleId",
      "Item2": "eq",
      "Item3": "1"
    },
    {
      "FilterName": "PortalId",
      "FilterOperator": "eq",
      "FilterValue": "1",
      "Item1": "PortalId",
      "Item2": "eq",
      "Item3": "1"
    },
    {
      "FilterName": "IsActive",
      "FilterOperator": "eq",
      "FilterValue": "true",
      "Item1": "IsActive",
      "Item2": "eq",
      "Item3": "true"
    },
    {
      "FilterName": "ZnodeCategoryId",
      "FilterOperator": "eq",
      "FilterValue": "6558",
      "Item1": "ZnodeCategoryId",
      "Item2": "eq",
      "Item3": "6558"
    }
  ],
  "sorts": {}
}

User Referrer: localhost:3288

Browser Name: Chrome

UserId: 

File Path: D:\Projects\CustomerProject\Znode_9_2_1_Full_Source_RS_New\Projects\Libraries\Znode.WebStore.Core\Agents\Agents\SearchAgent.cs

Method Name: FullTextSearch

Line Number: 60

Logger: SearchAgent.cs



Date - 18 Sep 2019 14:29:35
Level - INFO
UserAgent - Mozilla/5.0 (Windows NT 10.0; Win64; x64) AppleWebKit/537.36 (KHTML, like Gecko) Chrome/76.0.3809.132 Safari/537.36
Message - 
Method FullTextSearch -Agent method executed.

User Referrer: localhost:3288

Browser Name: Chrome

UserId: 

File Path: D:\Projects\CustomerProject\Znode_9_2_1_Full_Source_RS_New\Projects\Libraries\Znode.WebStore.Core\Agents\Agents\SearchAgent.cs

Method Name: FullTextSearch

Line Number: 69

Logger: SearchAgent.cs


